{
  "1":{
    "width":{
      "gfloat":242.0
    }
  },
  "2":{
    "height":{
      "gfloat":158.0
    }
  },
  "3":{
    "type":{
      "gchar":"text"
    }
  },
  "4":{
    "x":{
      "gfloat":242.0
    }
  },
  "5":{
    "y":{
      "gfloat":158.0
    }
  },
  "6":{
    "reactive":{
      "gboolean":true
    }
  }
}
